{
  "service": {
    "id": "rabbit",
    "name": "rabbit",
    "address": "RABBIT_ADDRESS",
	"port": RABBIT_PORT,
	"checks": [
		{
			"id": "api",
			"name": "HTTP health check",
			"http": "http://guest:guest@RABBIT_ADDRESS:RABBIT_MANAGEMENT_PORT/api/aliveness-test/%2F",
			"tls_server_name": "",
			"tls_skip_verify": false,
			"method": "GET",
			"header": {"Content-Type": ["application/json"]},
			"interval": "10s",
			"timeout": "1s"
		  }
	]
	}
}